[gd_scene load_steps=2 format=2]

[ext_resource path="res://objects/global/OriginCalibration.gd" type="Script" id=1]

[node name="OriginCalibration" type="Spatial"]
script = ExtResource( 1 )

[node name="CameraPosition" type="Position3D" parent="."]

[node name="OriginPosition" type="Position3D" parent="."]

[node name="CalibrateTimer" type="Timer" parent="OriginPosition"]
wait_time = 0.2
one_shot = true
autostart = true

[connection signal="timeout" from="OriginPosition/CalibrateTimer" to="." method="_on_CalibrateTimer_timeout"]
